website,area,date,observation time,sunrise,sunset,temperature[°C],windchill,pressure[hPa],windspeed[km/h],humidity[%],dt [°C],dw
imgw,raciborz,2020-11-25,25-Nov-2020 12:00:00,25-Nov-2020 07:16:00,25-Nov-2020 15:51:00,2,-0,1024.8,8,81.0,0.6,1.0
wttr.in,raciborz,2020-11-25,25-Nov-2020 13:18:00,25-Nov-2020 07:16:00,25-Nov-2020 15:51:00,2,-3,1024,37,80,0.6,1.0
imgw,katowice,2020-11-25,25-Nov-2020 12:00:00,25-Nov-2020 07:14:00,25-Nov-2020 15:48:00,3.8,3,1024,4,69.6,2.3,3.1
wttr.in,katowice,2020-11-25,25-Nov-2020 12:45:00,25-Nov-2020 07:14:00,25-Nov-2020 15:48:00,3,1,1025,7,65,2.3,3.1
imgw,bielsko biala,2020-11-25,25-Nov-2020 12:00:00,25-Nov-2020 07:12:00,25-Nov-2020 15:50:00,6.1,6,1023.5,3,50.7,5.6,5.8
wttr.in,bielsko biala,2020-11-25,25-Nov-2020 12:35:00,25-Nov-2020 07:12:00,25-Nov-2020 15:50:00,3,1,1022,24,70,5.6,5.8
imgw,raciborz,2020-11-25,25-Nov-2020 13:00:00,25-Nov-2020 07:16:00,25-Nov-2020 15:51:00,1.9,-0,1024.9,7,81.0,0.6,1.0
imgw,katowice,2020-11-25,25-Nov-2020 13:00:00,25-Nov-2020 07:14:00,25-Nov-2020 15:48:00,3,2,1024.2,5,71.0,2.3,3.1
imgw,bielsko biala,2020-11-25,25-Nov-2020 13:00:00,25-Nov-2020 07:12:00,25-Nov-2020 15:50:00,4.9,6,1023.8,2,64.9,5.6,5.8
wttr.in,bielsko biala,2020-11-25,25-Nov-2020 14:15:00,25-Nov-2020 07:12:00,25-Nov-2020 15:50:00,3,1,1022,24,65,5.6,5.8
wttr.in,raciborz,2020-11-25,25-Nov-2020 14:45:00,25-Nov-2020 07:16:00,25-Nov-2020 15:51:00,2,-3,1023,31,80,0.6,1.0
wttr.in,katowice,2020-11-25,25-Nov-2020 14:45:00,25-Nov-2020 07:14:00,25-Nov-2020 15:48:00,5,3,1024,8,57,2.3,3.1
imgw,raciborz,2020-11-25,25-Nov-2020 14:00:00,25-Nov-2020 07:16:00,25-Nov-2020 15:51:00,1.6,-1,1024.8,7,82.1,0.6,1.0
imgw,katowice,2020-11-25,25-Nov-2020 14:00:00,25-Nov-2020 07:14:00,25-Nov-2020 15:48:00,1.9,1,1024.4,4,75.7,2.3,3.1
imgw,bielsko biala,2020-11-25,25-Nov-2020 14:00:00,25-Nov-2020 07:12:00,25-Nov-2020 15:50:00,3.6,4,1024.2,2,68.6,5.6,5.8
imgw,raciborz,2020-11-25,25-Nov-2020 15:00:00,25-Nov-2020 07:16:00,25-Nov-2020 15:51:00,1.3,-1,1025,6,82.1,0.6,1.0
wttr.in,raciborz,2020-11-25,25-Nov-2020 16:14:00,25-Nov-2020 07:16:00,25-Nov-2020 15:51:00,1,-5,1023,37,80,0.6,1.0
imgw,katowice,2020-11-25,25-Nov-2020 15:00:00,25-Nov-2020 07:14:00,25-Nov-2020 15:48:00,0.1,-0,1024.9,3,80.7,2.3,3.1
imgw,bielsko biala,2020-11-25,25-Nov-2020 15:00:00,25-Nov-2020 07:12:00,25-Nov-2020 15:50:00,1.1,3,1025,1,77.9,5.6,5.8
wttr.in,bielsko biala,2020-11-25,25-Nov-2020 16:14:00,25-Nov-2020 07:12:00,25-Nov-2020 15:50:00,1,-2,1022,15,75,5.6,5.8
wttr.in,katowice,2020-11-25,25-Nov-2020 16:15:00,25-Nov-2020 07:14:00,25-Nov-2020 15:48:00,5,2,1024,13,55,2.3,3.1
imgw,katowice,2020-11-25,25-Nov-2020 16:00:00,25-Nov-2020 07:14:00,25-Nov-2020 15:48:00,-0.5,-2,1024.8,4,86.9,2.3,3.1
imgw,bielsko biala,2020-11-25,25-Nov-2020 16:00:00,25-Nov-2020 07:12:00,25-Nov-2020 15:50:00,-0.7,1,1025.3,1,85.6,5.6,5.8
imgw,raciborz,2020-11-25,25-Nov-2020 16:00:00,25-Nov-2020 07:16:00,25-Nov-2020 15:51:00,1.3,-1,1025,8,82.1,0.6,1.0
wttr.in,raciborz,2020-11-25,25-Nov-2020 17:55:00,25-Nov-2020 07:16:00,25-Nov-2020 15:51:00,1,-5,1024,30,80,0.6,1.0
wttr.in,bielsko biala,2020-11-25,25-Nov-2020 17:55:00,25-Nov-2020 07:12:00,25-Nov-2020 15:50:00,-1,-4,1022,17,86,5.6,5.8
imgw,raciborz,2020-11-25,25-Nov-2020 17:00:00,25-Nov-2020 07:16:00,25-Nov-2020 15:51:00,1.2,-1,1024.8,7,82.7,0.6,1.0
imgw,katowice,2020-11-25,25-Nov-2020 17:00:00,25-Nov-2020 07:14:00,25-Nov-2020 15:48:00,-0.9,-1,1025,3,88.2,2.3,3.1
imgw,bielsko biala,2020-11-25,25-Nov-2020 17:00:00,25-Nov-2020 07:12:00,25-Nov-2020 15:50:00,-1.7,-1,1025.4,2,90.1,5.6,5.8
wttr.in,katowice,2020-11-25,25-Nov-2020 18:03:00,25-Nov-2020 07:14:00,25-Nov-2020 15:48:00,3,-0,1024,12,65,2.3,3.1
imgw,raciborz,2020-11-25,25-Nov-2020 18:00:00,25-Nov-2020 07:16:00,25-Nov-2020 15:51:00,1.4,-1,1025,7,83.9,0.6,1.0
imgw,katowice,2020-11-25,25-Nov-2020 18:00:00,25-Nov-2020 07:14:00,25-Nov-2020 15:48:00,-0.9,-2,1025.1,4,88.8,2.3,3.1
imgw,bielsko biala,2020-11-25,25-Nov-2020 18:00:00,25-Nov-2020 07:12:00,25-Nov-2020 15:50:00,-1.9,-0,1025.7,1,88.7,5.6,5.8
wttr.in,raciborz,2020-11-25,25-Nov-2020 19:25:00,25-Nov-2020 07:16:00,25-Nov-2020 15:51:00,1,-4,1024,33,80,0.6,1.0
wttr.in,bielsko biala,2020-11-25,25-Nov-2020 19:45:00,25-Nov-2020 07:12:00,25-Nov-2020 15:50:00,-1,-4,1022,17,86,5.6,5.8
wttr.in,katowice,2020-11-25,25-Nov-2020 19:45:00,25-Nov-2020 07:14:00,25-Nov-2020 15:48:00,2,-1,1024,12,70,2.3,3.1
imgw,raciborz,2020-11-25,25-Nov-2020 19:00:00,25-Nov-2020 07:16:00,25-Nov-2020 15:51:00,1.5,-1,1024.7,8,82.7,0.6,1.0
imgw,katowice,2020-11-25,25-Nov-2020 19:00:00,25-Nov-2020 07:14:00,25-Nov-2020 15:48:00,-0.9,-2,1024.9,4,88.8,2.3,3.1
imgw,bielsko biala,2020-11-25,25-Nov-2020 19:00:00,25-Nov-2020 07:12:00,25-Nov-2020 15:50:00,-3.4,-2,1025.8,1,94.2,5.6,5.8
imgw,raciborz,2020-11-25,25-Nov-2020 20:00:00,25-Nov-2020 07:16:00,25-Nov-2020 15:51:00,1.4,-1,1024.8,8,82.7,0.6,1.0
wttr.in,raciborz,2020-11-25,25-Nov-2020 21:16:00,25-Nov-2020 07:16:00,25-Nov-2020 15:51:00,1,-4,1023,37,80,0.6,1.0
imgw,katowice,2020-11-25,25-Nov-2020 20:00:00,25-Nov-2020 07:14:00,25-Nov-2020 15:48:00,-0.9,-1,1025,3,90.2,2.3,3.1
imgw,bielsko biala,2020-11-25,25-Nov-2020 20:00:00,25-Nov-2020 07:12:00,25-Nov-2020 15:50:00,-3.8,-2,1025.7,1,92.7,5.6,5.8
wttr.in,bielsko biala,2020-11-25,25-Nov-2020 21:26:00,25-Nov-2020 07:12:00,25-Nov-2020 15:50:00,0,-3,1022,22,86,5.6,5.8
wttr.in,katowice,2020-11-25,25-Nov-2020 21:34:00,25-Nov-2020 07:14:00,25-Nov-2020 15:48:00,1,-3,1024,13,76,2.3,3.1
imgw,raciborz,2020-11-25,25-Nov-2020 21:00:00,25-Nov-2020 07:16:00,25-Nov-2020 15:51:00,1.4,-1,1024.7,7,83.9,0.6,1.0
imgw,katowice,2020-11-25,25-Nov-2020 21:00:00,25-Nov-2020 07:14:00,25-Nov-2020 15:48:00,-0.5,-2,1025,4,90.2,2.3,3.1
wttr.in,raciborz,2020-11-25,25-Nov-2020 22:46:00,25-Nov-2020 07:16:00,25-Nov-2020 15:51:00,1,-5,1024,30,80,0.6,1.0
imgw,bielsko biala,2020-11-25,25-Nov-2020 21:00:00,25-Nov-2020 07:12:00,25-Nov-2020 15:50:00,-4.5,-3,1026,1,92.7,5.6,5.8
imgw,katowice,2020-11-25,25-Nov-2020 22:00:00,25-Nov-2020 07:14:00,25-Nov-2020 15:48:00,0,-2,1025.1,5,87.6,2.3,3.1
wttr.in,katowice,2020-11-25,25-Nov-2020 23:15:00,25-Nov-2020 07:14:00,25-Nov-2020 15:48:00,0,-4,1025,15,79,2.3,3.1
imgw,bielsko biala,2020-11-25,25-Nov-2020 22:00:00,25-Nov-2020 07:12:00,25-Nov-2020 15:50:00,-4.5,-3,1026.1,1,94.8,5.6,5.8
wttr.in,bielsko biala,2020-11-25,25-Nov-2020 23:26:00,25-Nov-2020 07:12:00,25-Nov-2020 15:50:00,0,-3,1022,30,86,5.6,5.8
imgw,raciborz,2020-11-25,25-Nov-2020 22:00:00,25-Nov-2020 07:16:00,25-Nov-2020 15:51:00,1.4,-1,1024.8,7,83.9,0.6,1.0
imgw,raciborz,2020-11-25,25-Nov-2020 22:00:00,25-Nov-2020 07:18:00,25-Nov-2020 15:51:00,1.4,-1,1024.8,7,83.9,0.6,1.0
wttr.in,raciborz,2020-11-26,26-Nov-2020 00:06:00,26-Nov-2020 07:18:00,26-Nov-2020 15:51:00,1,-5,1024,31,80,0.9,0.7
imgw,raciborz,2020-11-25,25-Nov-2020 23:00:00,25-Nov-2020 07:18:00,25-Nov-2020 15:51:00,1.3,-1,1024.8,6,85.2,0.6,1.0
imgw,katowice,2020-11-25,25-Nov-2020 23:00:00,25-Nov-2020 07:14:00,25-Nov-2020 15:48:00,0.1,-1,1025.1,5,87.6,2.3,3.1
imgw,bielsko biala,2020-11-25,25-Nov-2020 23:00:00,25-Nov-2020 07:12:00,25-Nov-2020 15:50:00,-3.3,-3,1025.8,2,96.3,5.6,5.8
imgw,bielsko biala,2020-11-25,25-Nov-2020 23:00:00,25-Nov-2020 07:14:00,25-Nov-2020 15:49:00,-3.3,-3,1025.8,2,96.3,5.6,5.8
wttr.in,bielsko biala,2020-11-26,26-Nov-2020 00:56:00,26-Nov-2020 07:14:00,26-Nov-2020 15:49:00,0,-3,1022,26,86,3.6,3.5
imgw,katowice,2020-11-25,25-Nov-2020 23:00:00,25-Nov-2020 07:15:00,25-Nov-2020 15:47:00,0.1,-1,1025.1,5,87.6,2.3,3.1
wttr.in,katowice,2020-11-26,26-Nov-2020 01:04:00,26-Nov-2020 07:15:00,26-Nov-2020 15:47:00,-0,-5,1025,16,79,0.7,0.4
imgw,raciborz,2020-11-26,26-Nov-2020 00:00:00,26-Nov-2020 07:18:00,26-Nov-2020 15:51:00,1.3,-1,1024.6,7,83.9,0.9,0.7
imgw,katowice,2020-11-26,26-Nov-2020 00:00:00,26-Nov-2020 07:15:00,26-Nov-2020 15:47:00,0.1,-1,1024.5,5,87.6,0.7,0.4
imgw,bielsko biala,2020-11-26,26-Nov-2020 00:00:00,26-Nov-2020 07:14:00,26-Nov-2020 15:49:00,-3.3,-2,1025.5,1,94.9,3.6,3.5
wttr.in,raciborz,2020-11-26,26-Nov-2020 01:56:00,26-Nov-2020 07:18:00,26-Nov-2020 15:51:00,1,-5,1023,33,80,0.9,0.7
imgw,raciborz,2020-11-26,26-Nov-2020 01:00:00,26-Nov-2020 07:18:00,26-Nov-2020 15:51:00,1.3,-1,1024.6,7,85.2,0.9,0.7
imgw,katowice,2020-11-26,26-Nov-2020 01:00:00,26-Nov-2020 07:15:00,26-Nov-2020 15:47:00,0.1,-1,1024.5,5,87.6,0.7,0.4
imgw,bielsko biala,2020-11-26,26-Nov-2020 01:00:00,26-Nov-2020 07:14:00,26-Nov-2020 15:49:00,-4,-4,1025.6,2,96.3,3.6,3.5
wttr.in,bielsko biala,2020-11-26,26-Nov-2020 02:46:00,26-Nov-2020 07:14:00,26-Nov-2020 15:49:00,0,-3,1022,22,86,3.6,3.5
wttr.in,katowice,2020-11-26,26-Nov-2020 02:45:00,26-Nov-2020 07:15:00,26-Nov-2020 15:47:00,-0,-5,1025,16,79,0.7,0.4
imgw,raciborz,2020-11-26,26-Nov-2020 02:00:00,26-Nov-2020 07:18:00,26-Nov-2020 15:51:00,1.3,-1,1024.6,7,85.2,0.9,0.7
imgw,katowice,2020-11-26,26-Nov-2020 02:00:00,26-Nov-2020 07:15:00,26-Nov-2020 15:47:00,0.3,-1,1024.6,5,87.6,0.7,0.4
imgw,bielsko biala,2020-11-26,26-Nov-2020 02:00:00,26-Nov-2020 07:14:00,26-Nov-2020 15:49:00,-3.4,-2,1025.5,1,94.2,3.6,3.5
wttr.in,raciborz,2020-11-26,26-Nov-2020 03:26:00,26-Nov-2020 07:18:00,26-Nov-2020 15:51:00,1,-5,1023,37,80,0.9,0.7
imgw,raciborz,2020-11-26,26-Nov-2020 03:00:00,26-Nov-2020 07:18:00,26-Nov-2020 15:51:00,1.3,-1,1024.7,6,85.8,0.9,0.7
imgw,katowice,2020-11-26,26-Nov-2020 03:00:00,26-Nov-2020 07:15:00,26-Nov-2020 15:47:00,0.4,-1,1024.6,5,87.0,0.7,0.4
imgw,bielsko biala,2020-11-26,26-Nov-2020 03:00:00,26-Nov-2020 07:14:00,26-Nov-2020 15:49:00,-4.2,-3,1025.6,1,94.8,3.6,3.5
wttr.in,bielsko biala,2020-11-26,26-Nov-2020 04:36:00,26-Nov-2020 07:14:00,26-Nov-2020 15:49:00,0,-3,1022,20,86,3.6,3.5
wttr.in,katowice,2020-11-26,26-Nov-2020 04:45:00,26-Nov-2020 07:15:00,26-Nov-2020 15:47:00,-1,-5,1025,16,78,0.7,0.4
wttr.in,raciborz,2020-11-26,26-Nov-2020 04:56:00,26-Nov-2020 07:18:00,26-Nov-2020 15:51:00,1,-5,1023,31,80,0.9,0.7
imgw,raciborz,2020-11-26,26-Nov-2020 04:00:00,26-Nov-2020 07:18:00,26-Nov-2020 15:51:00,1.2,-1,1024.6,6,85.8,0.9,0.7
imgw,katowice,2020-11-26,26-Nov-2020 04:00:00,26-Nov-2020 07:15:00,26-Nov-2020 15:47:00,0.4,-1,1024.7,5,87.0,0.7,0.4
imgw,bielsko biala,2020-11-26,26-Nov-2020 04:00:00,26-Nov-2020 07:14:00,26-Nov-2020 15:49:00,-4.4,-3,1025.7,1,96.3,3.6,3.5
imgw,raciborz,2020-11-26,26-Nov-2020 05:00:00,26-Nov-2020 07:18:00,26-Nov-2020 15:51:00,1.3,-1,1024.8,7,83.9,0.9,0.7
imgw,katowice,2020-11-26,26-Nov-2020 05:00:00,26-Nov-2020 07:15:00,26-Nov-2020 15:47:00,0.4,-1,1024.7,5,87.0,0.7,0.4
imgw,bielsko biala,2020-11-26,26-Nov-2020 05:00:00,26-Nov-2020 07:14:00,26-Nov-2020 15:49:00,-5.4,-5,1025.9,2,92.6,3.6,3.5
wttr.in,bielsko biala,2020-11-26,26-Nov-2020 06:17:00,26-Nov-2020 07:14:00,26-Nov-2020 15:49:00,0,-3,1022,24,86,3.6,3.5
wttr.in,katowice,2020-11-26,26-Nov-2020 06:15:00,26-Nov-2020 07:15:00,26-Nov-2020 15:47:00,-1,-5,1024,16,79,0.7,0.4
wttr.in,raciborz,2020-11-26,26-Nov-2020 06:47:00,26-Nov-2020 07:18:00,26-Nov-2020 15:51:00,1,-5,1023,33,80,0.9,0.7
imgw,raciborz,2020-11-26,26-Nov-2020 06:00:00,26-Nov-2020 07:18:00,26-Nov-2020 15:51:00,1.2,-0,1024.9,5,85.8,0.9,0.7
imgw,katowice,2020-11-26,26-Nov-2020 06:00:00,26-Nov-2020 07:15:00,26-Nov-2020 15:47:00,0.4,-1,1024.9,5,85.7,0.7,0.4
imgw,bielsko biala,2020-11-26,26-Nov-2020 06:00:00,26-Nov-2020 07:14:00,26-Nov-2020 15:49:00,-5.2,-4,1026.4,1,94.8,3.6,3.5
wttr.in,katowice,2020-11-26,26-Nov-2020 08:07:00,26-Nov-2020 07:15:00,26-Nov-2020 15:47:00,-1,-5,1024,15,79,0.7,0.4
imgw,raciborz,2020-11-26,26-Nov-2020 07:00:00,26-Nov-2020 07:18:00,26-Nov-2020 15:51:00,1.3,-1,1025.1,7,85.2,0.9,0.7
imgw,katowice,2020-11-26,26-Nov-2020 07:00:00,26-Nov-2020 07:15:00,26-Nov-2020 15:47:00,0.5,-1,1025,5,85.7,0.7,0.4
imgw,bielsko biala,2020-11-26,26-Nov-2020 07:00:00,26-Nov-2020 07:14:00,26-Nov-2020 15:49:00,-5.3,-4,1026.5,1,94.8,3.6,3.5
wttr.in,bielsko biala,2020-11-26,26-Nov-2020 08:17:00,26-Nov-2020 07:14:00,26-Nov-2020 15:49:00,0,-3,1022,19,86,3.6,3.5
wttr.in,raciborz,2020-11-26,26-Nov-2020 08:27:00,26-Nov-2020 07:18:00,26-Nov-2020 15:51:00,1,-4,1024,31,80,0.9,0.7
imgw,raciborz,2020-11-26,26-Nov-2020 08:00:00,26-Nov-2020 07:18:00,26-Nov-2020 15:51:00,1.6,0,1025.2,5,84.6,0.9,0.7
imgw,bielsko biala,2020-11-26,26-Nov-2020 08:00:00,26-Nov-2020 07:14:00,26-Nov-2020 15:49:00,-2.1,12,1025.7,0,92.1,3.6,3.5
wttr.in,raciborz,2020-11-26,26-Nov-2020 09:37:00,26-Nov-2020 07:18:00,26-Nov-2020 15:51:00,1,-4,1024,30,80,0.9,0.7
imgw,katowice,2020-11-26,26-Nov-2020 08:00:00,26-Nov-2020 07:15:00,26-Nov-2020 15:47:00,0.7,-1,1025.1,5,85.7,0.7,0.4
wttr.in,bielsko biala,2020-11-26,26-Nov-2020 09:47:00,26-Nov-2020 07:14:00,26-Nov-2020 15:49:00,0,-3,1022,22,86,3.6,3.5
wttr.in,katowice,2020-11-26,26-Nov-2020 09:45:00,26-Nov-2020 07:15:00,26-Nov-2020 15:47:00,-1,-5,1025,16,80,0.7,0.4
wttr.in,raciborz,2020-11-26,26-Nov-2020 11:37:00,26-Nov-2020 07:18:00,26-Nov-2020 15:51:00,1,-4,1024,30,86,0.9,0.7
wttr.in,katowice,2020-11-26,26-Nov-2020 11:37:00,26-Nov-2020 07:15:00,26-Nov-2020 15:47:00,1,-3,1024,14,80,0.7,0.4
imgw,raciborz,2020-11-26,26-Nov-2020 10:00:00,26-Nov-2020 07:18:00,26-Nov-2020 15:51:00,2.3,0,1025,7,84.0,0.9,0.7
imgw,katowice,2020-11-26,26-Nov-2020 10:00:00,26-Nov-2020 07:15:00,26-Nov-2020 15:47:00,1.2,-1,1024.8,6,82.7,0.7,0.4
imgw,bielsko biala,2020-11-26,26-Nov-2020 10:00:00,26-Nov-2020 07:14:00,26-Nov-2020 15:49:00,1.5,3,1025,1,74.0,3.6,3.5
wttr.in,bielsko biala,2020-11-26,26-Nov-2020 11:47:00,26-Nov-2020 07:14:00,26-Nov-2020 15:49:00,0,-3,1022,22,86,3.6,3.5
imgw,katowice,2020-11-26,26-Nov-2020 11:00:00,26-Nov-2020 07:15:00,26-Nov-2020 15:47:00,1.3,-1,1024.8,6,82.7,0.7,0.4
imgw,bielsko biala,2020-11-26,26-Nov-2020 11:00:00,26-Nov-2020 07:14:00,26-Nov-2020 15:49:00,2.6,3,1024.7,2,69.9,3.6,3.5
imgw,raciborz,2020-11-26,26-Nov-2020 11:00:00,26-Nov-2020 07:18:00,26-Nov-2020 15:51:00,2.5,0,1024.5,8,82.8,0.9,0.7
wttr.in,raciborz,2020-11-26,26-Nov-2020 12:45:00,26-Nov-2020 07:18:00,26-Nov-2020 15:51:00,1,-4,1024,33,86,0.9,0.7
imgw,raciborz,2020-11-26,26-Nov-2020 12:00:00,26-Nov-2020 07:18:00,26-Nov-2020 15:51:00,2.8,1,1024.4,6,82.9,0.9,0.7
wttr.in,katowice,2020-11-26,26-Nov-2020 13:15:00,26-Nov-2020 07:15:00,26-Nov-2020 15:47:00,3,-1,1023,15,72,0.7,0.4
imgw,bielsko biala,2020-11-26,26-Nov-2020 12:00:00,26-Nov-2020 07:14:00,26-Nov-2020 15:49:00,3.3,3,1024.1,3,64.6,3.6,3.5
wttr.in,bielsko biala,2020-11-26,26-Nov-2020 13:35:00,26-Nov-2020 07:14:00,26-Nov-2020 15:49:00,2,-1,1022,19,75,3.6,3.5
imgw,katowice,2020-11-26,26-Nov-2020 12:00:00,26-Nov-2020 07:15:00,26-Nov-2020 15:47:00,1.5,-0,1024.2,6,82.7,0.7,0.4
imgw,raciborz,2020-11-26,26-Nov-2020 13:00:00,26-Nov-2020 07:18:00,26-Nov-2020 15:51:00,2.5,1,1023.6,7,84.1,0.9,0.7
imgw,katowice,2020-11-26,26-Nov-2020 13:00:00,26-Nov-2020 07:15:00,26-Nov-2020 15:47:00,1.3,-1,1023.8,6,82.7,0.7,0.4
imgw,bielsko biala,2020-11-26,26-Nov-2020 13:00:00,26-Nov-2020 07:14:00,26-Nov-2020 15:49:00,3.5,3,1023.7,3,62.7,3.6,3.5
wttr.in,raciborz,2020-11-26,26-Nov-2020 14:28:00,26-Nov-2020 07:18:00,26-Nov-2020 15:51:00,1,-4,1023,33,86,0.9,0.7
wttr.in,katowice,2020-11-26,26-Nov-2020 15:08:00,26-Nov-2020 07:15:00,26-Nov-2020 15:47:00,4,1,1022,14,67,0.7,0.4
imgw,raciborz,2020-11-26,26-Nov-2020 14:00:00,26-Nov-2020 07:18:00,26-Nov-2020 15:51:00,2.2,1,1023.9,6,84.6,0.9,0.7
imgw,katowice,2020-11-26,26-Nov-2020 14:00:00,26-Nov-2020 07:15:00,26-Nov-2020 15:47:00,1.1,-0,1023.9,5,85.1,0.7,0.4
imgw,bielsko biala,2020-11-26,26-Nov-2020 14:00:00,26-Nov-2020 07:14:00,26-Nov-2020 15:49:00,3,5,1023.4,1,65.9,3.6,3.5
wttr.in,bielsko biala,2020-11-26,26-Nov-2020 15:18:00,26-Nov-2020 07:14:00,26-Nov-2020 15:49:00,1,-2,1021,19,80,3.6,3.5
wttr.in,raciborz,2020-11-26,26-Nov-2020 16:08:00,26-Nov-2020 07:18:00,26-Nov-2020 15:51:00,1,-4,1023,30,86,0.9,0.7
imgw,raciborz,2020-11-26,26-Nov-2020 15:00:00,26-Nov-2020 07:18:00,26-Nov-2020 15:51:00,1.5,0,1024,5,87.1,0.9,0.7
imgw,katowice,2020-11-26,26-Nov-2020 15:00:00,26-Nov-2020 07:15:00,26-Nov-2020 15:47:00,0.7,0,1023.7,3,87.7,0.7,0.4
imgw,bielsko biala,2020-11-26,26-Nov-2020 15:00:00,26-Nov-2020 07:14:00,26-Nov-2020 15:49:00,0.8,1,1024.2,2,75.0,3.6,3.5
wttr.in,katowice,2020-11-26,26-Nov-2020 16:45:00,26-Nov-2020 07:15:00,26-Nov-2020 15:47:00,4,-0,1023,16,65,0.7,0.4
imgw,raciborz,2020-11-26,26-Nov-2020 16:00:00,26-Nov-2020 07:18:00,26-Nov-2020 15:51:00,0.8,-0,1023.7,4,89.0,0.9,0.7
imgw,katowice,2020-11-26,26-Nov-2020 16:00:00,26-Nov-2020 07:15:00,26-Nov-2020 15:47:00,0.6,-1,1023.8,5,89.6,0.7,0.4
imgw,bielsko biala,2020-11-26,26-Nov-2020 16:00:00,26-Nov-2020 07:14:00,26-Nov-2020 15:49:00,-0.9,13,1024.4,0,83.0,3.6,3.5
wttr.in,bielsko biala,2020-11-26,26-Nov-2020 17:18:00,26-Nov-2020 07:14:00,26-Nov-2020 15:49:00,0,-3,1021,22,86,3.6,3.5
wttr.in,raciborz,2020-11-26,26-Nov-2020 17:48:00,26-Nov-2020 07:18:00,26-Nov-2020 15:51:00,1,-4,1023,31,86,0.9,0.7
imgw,katowice,2020-11-26,26-Nov-2020 17:00:00,26-Nov-2020 07:15:00,26-Nov-2020 15:47:00,0.5,-1,1023.8,4,89.6,0.7,0.4
imgw,bielsko biala,2020-11-26,26-Nov-2020 17:00:00,26-Nov-2020 07:14:00,26-Nov-2020 15:49:00,-1.1,-1,1024.4,2,84.9,3.6,3.5
imgw,raciborz,2020-11-26,26-Nov-2020 17:00:00,26-Nov-2020 07:18:00,26-Nov-2020 15:51:00,0.3,-0,1024.1,3,90.9,0.9,0.7
wttr.in,bielsko biala,2020-11-26,26-Nov-2020 18:48:00,26-Nov-2020 07:14:00,26-Nov-2020 15:49:00,0,-3,1021,17,93,3.6,3.5
wttr.in,katowice,2020-11-26,26-Nov-2020 18:35:00,26-Nov-2020 07:15:00,26-Nov-2020 15:47:00,2,-1,1023,14,72,0.7,0.4
imgw,raciborz,2020-11-26,26-Nov-2020 18:00:00,26-Nov-2020 07:18:00,26-Nov-2020 15:51:00,0.1,-0,1024.3,3,90.9,0.9,0.7
wttr.in,raciborz,2020-11-26,26-Nov-2020 19:18:00,26-Nov-2020 07:18:00,26-Nov-2020 15:51:00,1,-4,1023,31,86,0.9,0.7
imgw,katowice,2020-11-26,26-Nov-2020 18:00:00,26-Nov-2020 07:15:00,26-Nov-2020 15:47:00,0.5,-1,1024,5,89.6,0.7,0.4
imgw,bielsko biala,2020-11-26,26-Nov-2020 18:00:00,26-Nov-2020 07:14:00,26-Nov-2020 15:49:00,-1.8,-0,1024.7,1,90.1,3.6,3.5
imgw,raciborz,2020-11-26,26-Nov-2020 19:00:00,26-Nov-2020 07:18:00,26-Nov-2020 15:51:00,-0.2,-1,1024.1,3,92.9,0.9,0.7
imgw,katowice,2020-11-26,26-Nov-2020 19:00:00,26-Nov-2020 07:15:00,26-Nov-2020 15:47:00,0.4,-1,1024.1,4,90.9,0.7,0.4
wttr.in,katowice,2020-11-26,26-Nov-2020 20:15:00,26-Nov-2020 07:15:00,26-Nov-2020 15:47:00,1,-2,1023,12,77,0.7,0.4
imgw,bielsko biala,2020-11-26,26-Nov-2020 19:00:00,26-Nov-2020 07:14:00,26-Nov-2020 15:49:00,-2.7,-1,1024.9,1,92.1,3.6,3.5
wttr.in,bielsko biala,2020-11-26,26-Nov-2020 20:39:00,26-Nov-2020 07:14:00,26-Nov-2020 15:49:00,0,-3,1021,20,93,3.6,3.5
wttr.in,raciborz,2020-11-26,26-Nov-2020 20:59:00,26-Nov-2020 07:18:00,26-Nov-2020 15:51:00,1,-4,1023,31,86,0.9,0.7
imgw,raciborz,2020-11-26,26-Nov-2020 20:00:00,26-Nov-2020 07:18:00,26-Nov-2020 15:51:00,0.1,-1,1024.6,4,92.9,0.9,0.7
imgw,katowice,2020-11-26,26-Nov-2020 20:00:00,26-Nov-2020 07:15:00,26-Nov-2020 15:47:00,0.4,-1,1024.3,4,92.3,0.7,0.4
imgw,bielsko biala,2020-11-26,26-Nov-2020 20:00:00,26-Nov-2020 07:14:00,26-Nov-2020 15:49:00,-3,-1,1025.4,1,94.2,3.6,3.5
imgw,raciborz,2020-11-26,26-Nov-2020 21:00:00,26-Nov-2020 07:18:00,26-Nov-2020 15:51:00,0.3,-1,1024.5,4,92.3,0.9,0.7
imgw,katowice,2020-11-26,26-Nov-2020 21:00:00,26-Nov-2020 07:15:00,26-Nov-2020 15:47:00,0.4,-1,1024.4,4,92.9,0.7,0.4
wttr.in,katowice,2020-11-26,26-Nov-2020 22:15:00,26-Nov-2020 07:15:00,26-Nov-2020 15:47:00,1,-3,1023,12,79,0.7,0.4
imgw,bielsko biala,2020-11-26,26-Nov-2020 21:00:00,26-Nov-2020 07:14:00,26-Nov-2020 15:49:00,-2.8,-1,1025.5,1,92.8,3.6,3.5
wttr.in,raciborz,2020-11-26,26-Nov-2020 22:29:00,26-Nov-2020 07:18:00,26-Nov-2020 15:51:00,1,-4,1023,31,86,0.9,0.7
wttr.in,bielsko biala,2020-11-26,26-Nov-2020 22:29:00,26-Nov-2020 07:14:00,26-Nov-2020 15:49:00,0,-3,1021,20,93,3.6,3.5
imgw,raciborz,2020-11-26,26-Nov-2020 22:00:00,26-Nov-2020 07:18:00,26-Nov-2020 15:51:00,-0.4,-1,1024.2,3,94.3,0.9,0.7
imgw,katowice,2020-11-26,26-Nov-2020 22:00:00,26-Nov-2020 07:15:00,26-Nov-2020 15:47:00,0.3,-1,1023.9,4,92.9,0.7,0.4
imgw,bielsko biala,2020-11-26,26-Nov-2020 22:00:00,26-Nov-2020 07:14:00,26-Nov-2020 15:49:00,-3.3,-2,1025.4,1,92.7,3.6,3.5
wttr.in,katowice,2020-11-26,26-Nov-2020 23:45:00,26-Nov-2020 07:15:00,26-Nov-2020 15:47:00,-2,-4,1023,12,79,0.7,0.4
imgw,raciborz,2020-11-26,26-Nov-2020 22:00:00,26-Nov-2020 07:19:00,26-Nov-2020 15:50:00,-0.4,-1,1024.2,3,94.3,0.9,0.7
wttr.in,raciborz,2020-11-27,27-Nov-2020 00:09:00,27-Nov-2020 07:19:00,27-Nov-2020 15:50:00,0,-4,1023,28,93,0.8,1.1
imgw,bielsko biala,2020-11-26,26-Nov-2020 22:00:00,26-Nov-2020 07:15:00,26-Nov-2020 15:48:00,-3.3,-2,1025.4,1,92.7,3.6,3.5
wttr.in,bielsko biala,2020-11-27,27-Nov-2020 00:09:00,27-Nov-2020 07:15:00,27-Nov-2020 15:48:00,0,-3,1021,19,93,2.2,3.2
imgw,raciborz,2020-11-26,26-Nov-2020 23:00:00,26-Nov-2020 07:19:00,26-Nov-2020 15:50:00,-0.4,-0,1024.1,2,94.3,0.9,0.7
imgw,katowice,2020-11-26,26-Nov-2020 23:00:00,26-Nov-2020 07:15:00,26-Nov-2020 15:47:00,0.3,-0,1023.9,3,93.6,0.7,0.4
imgw,bielsko biala,2020-11-26,26-Nov-2020 23:00:00,26-Nov-2020 07:15:00,26-Nov-2020 15:48:00,-3.9,-4,1025,2,94.1,3.6,3.5
imgw,raciborz,2020-11-27,27-Nov-2020 00:00:00,27-Nov-2020 07:19:00,27-Nov-2020 15:50:00,-0.1,-1,1023.6,3,95.0,0.8,1.1
imgw,bielsko biala,2020-11-27,27-Nov-2020 00:00:00,27-Nov-2020 07:15:00,27-Nov-2020 15:48:00,-4.8,-3,1024.6,1,91.2,2.2,3.2
wttr.in,raciborz,2020-11-27,27-Nov-2020 01:39:00,27-Nov-2020 07:19:00,27-Nov-2020 15:50:00,0,-4,1023,26,93,0.8,1.1
imgw,katowice,2020-11-27,27-Nov-2020 00:00:00,27-Nov-2020 07:15:00,27-Nov-2020 15:47:00,0.1,-1,1023.5,4,95.0,1.2,1.1
imgw,katowice,2020-11-27,27-Nov-2020 00:00:00,27-Nov-2020 07:17:00,27-Nov-2020 15:47:00,0.1,-1,1023.5,4,95.0,1.2,1.1
wttr.in,katowice,2020-11-27,27-Nov-2020 01:33:00,27-Nov-2020 07:17:00,27-Nov-2020 15:47:00,-1,-3,1023,10,79,1.2,1.1
wttr.in,bielsko biala,2020-11-27,27-Nov-2020 01:59:00,27-Nov-2020 07:15:00,27-Nov-2020 15:48:00,0,-3,1021,17,93,2.2,3.2
imgw,raciborz,2020-11-27,27-Nov-2020 01:00:00,27-Nov-2020 07:19:00,27-Nov-2020 15:50:00,0.2,-1,1023.6,4,93.6,0.8,1.1
imgw,katowice,2020-11-27,27-Nov-2020 01:00:00,27-Nov-2020 07:17:00,27-Nov-2020 15:47:00,0.1,-0,1023.4,3,97.1,1.2,1.1
imgw,bielsko biala,2020-11-27,27-Nov-2020 01:00:00,27-Nov-2020 07:15:00,27-Nov-2020 15:48:00,-3.5,-3,1024.3,2,94.9,2.2,3.2
imgw,raciborz,2020-11-27,27-Nov-2020 02:00:00,27-Nov-2020 07:19:00,27-Nov-2020 15:50:00,0.4,0,1023.5,3,93.6,0.8,1.1
wttr.in,raciborz,2020-11-27,27-Nov-2020 03:10:00,27-Nov-2020 07:19:00,27-Nov-2020 15:50:00,0,-4,1022,24,100,0.8,1.1
imgw,katowice,2020-11-27,27-Nov-2020 02:00:00,27-Nov-2020 07:17:00,27-Nov-2020 15:47:00,0.1,1,1023.3,2,95.7,1.2,1.1
imgw,bielsko biala,2020-11-27,27-Nov-2020 02:00:00,27-Nov-2020 07:15:00,27-Nov-2020 15:48:00,-3.4,-2,1024.3,1,94.9,2.2,3.2
wttr.in,katowice,2020-11-27,27-Nov-2020 03:15:00,27-Nov-2020 07:17:00,27-Nov-2020 15:47:00,-1,-3,1023,10,79,1.2,1.1
wttr.in,bielsko biala,2020-11-27,27-Nov-2020 03:57:00,27-Nov-2020 07:15:00,27-Nov-2020 15:48:00,0,-3,1021,15,93,2.2,3.2
imgw,katowice,2020-11-27,27-Nov-2020 03:00:00,27-Nov-2020 07:17:00,27-Nov-2020 15:47:00,0.2,-0,1023.4,3,95.7,1.2,1.1
imgw,bielsko biala,2020-11-27,27-Nov-2020 03:00:00,27-Nov-2020 07:15:00,27-Nov-2020 15:48:00,-3.5,-3,1024.3,2,94.1,2.2,3.2
imgw,raciborz,2020-11-27,27-Nov-2020 03:00:00,27-Nov-2020 07:19:00,27-Nov-2020 15:50:00,0.5,1,1023.4,2,93.0,0.8,1.1
wttr.in,raciborz,2020-11-27,27-Nov-2020 04:50:00,27-Nov-2020 07:19:00,27-Nov-2020 15:50:00,0,-5,1022,26,100,0.8,1.1
imgw,raciborz,2020-11-27,27-Nov-2020 04:00:00,27-Nov-2020 07:19:00,27-Nov-2020 15:50:00,0.6,1,1023.4,2,91.6,0.8,1.1
imgw,katowice,2020-11-27,27-Nov-2020 04:00:00,27-Nov-2020 07:17:00,27-Nov-2020 15:47:00,0.3,1,1023.5,2,95.7,1.2,1.1
wttr.in,katowice,2020-11-27,27-Nov-2020 05:10:00,27-Nov-2020 07:17:00,27-Nov-2020 15:47:00,1,-3,1023,12,77,1.2,1.1
imgw,bielsko biala,2020-11-27,27-Nov-2020 04:00:00,27-Nov-2020 07:15:00,27-Nov-2020 15:48:00,-2.6,-2,1024.3,2,94.9,2.2,3.2
wttr.in,bielsko biala,2020-11-27,27-Nov-2020 05:40:00,27-Nov-2020 07:15:00,27-Nov-2020 15:48:00,0,-3,1021,15,100,2.2,3.2
imgw,raciborz,2020-11-27,27-Nov-2020 05:00:00,27-Nov-2020 07:19:00,27-Nov-2020 15:50:00,0.8,1,1023.7,2,90.9,0.8,1.1
imgw,katowice,2020-11-27,27-Nov-2020 05:00:00,27-Nov-2020 07:17:00,27-Nov-2020 15:47:00,0.5,-1,1023.3,4,95.7,1.2,1.1
imgw,bielsko biala,2020-11-27,27-Nov-2020 05:00:00,27-Nov-2020 07:15:00,27-Nov-2020 15:48:00,-2.6,12,1024.2,0,94.2,2.2,3.2
wttr.in,raciborz,2020-11-27,27-Nov-2020 06:20:00,27-Nov-2020 07:19:00,27-Nov-2020 15:50:00,0,-4,1022,28,93,0.8,1.1
wttr.in,katowice,2020-11-27,27-Nov-2020 06:45:00,27-Nov-2020 07:17:00,27-Nov-2020 15:47:00,1,-3,1023,11,77,1.2,1.1
imgw,raciborz,2020-11-27,27-Nov-2020 06:00:00,27-Nov-2020 07:19:00,27-Nov-2020 15:50:00,0.9,1,1023.6,2,91.0,0.8,1.1
imgw,katowice,2020-11-27,27-Nov-2020 06:00:00,27-Nov-2020 07:17:00,27-Nov-2020 15:47:00,0.6,-0,1023.3,4,95.0,1.2,1.1
imgw,bielsko biala,2020-11-27,27-Nov-2020 06:00:00,27-Nov-2020 07:15:00,27-Nov-2020 15:48:00,-2.2,-0,1024.5,1,94.2,2.2,3.2
wttr.in,bielsko biala,2020-11-27,27-Nov-2020 07:10:00,27-Nov-2020 07:15:00,27-Nov-2020 15:48:00,0,-2,1021,15,100,2.2,3.2
imgw,raciborz,2020-11-27,27-Nov-2020 07:00:00,27-Nov-2020 07:19:00,27-Nov-2020 15:50:00,1.1,3,1023.9,1,91.6,0.8,1.1
wttr.in,raciborz,2020-11-27,27-Nov-2020 08:10:00,27-Nov-2020 07:19:00,27-Nov-2020 15:50:00,0,-4,1023,11,82,0.8,1.1
imgw,katowice,2020-11-27,27-Nov-2020 07:00:00,27-Nov-2020 07:17:00,27-Nov-2020 15:47:00,0.5,0,1023.5,3,95.7,1.2,1.1
imgw,bielsko biala,2020-11-27,27-Nov-2020 07:00:00,27-Nov-2020 07:15:00,27-Nov-2020 15:48:00,-1.3,0,1024.5,1,92.9,2.2,3.2
wttr.in,katowice,2020-11-27,27-Nov-2020 08:45:00,27-Nov-2020 07:17:00,27-Nov-2020 15:47:00,1,-3,1022,10,77,1.2,1.1
imgw,raciborz,2020-11-27,27-Nov-2020 08:00:00,27-Nov-2020 07:19:00,27-Nov-2020 15:50:00,1.3,1,1023.9,3,91.0,0.8,1.1
imgw,katowice,2020-11-27,27-Nov-2020 08:00:00,27-Nov-2020 07:17:00,27-Nov-2020 15:47:00,0.8,0,1023.6,3,97.1,1.2,1.1
imgw,bielsko biala,2020-11-27,27-Nov-2020 08:00:00,27-Nov-2020 07:15:00,27-Nov-2020 15:48:00,-1,1,1024.5,1,92.9,2.2,3.2
wttr.in,bielsko biala,2020-11-27,27-Nov-2020 09:11:00,27-Nov-2020 07:15:00,27-Nov-2020 15:48:00,0,-3,1021,9,100,2.2,3.2
wttr.in,raciborz,2020-11-27,27-Nov-2020 09:41:00,27-Nov-2020 07:19:00,27-Nov-2020 15:50:00,0,-3,1023,26,93,0.8,1.1
imgw,raciborz,2020-11-27,27-Nov-2020 09:00:00,27-Nov-2020 07:19:00,27-Nov-2020 15:50:00,1.8,2,1023.9,3,89.0,0.8,1.1
imgw,katowice,2020-11-27,27-Nov-2020 09:00:00,27-Nov-2020 07:17:00,27-Nov-2020 15:47:00,1.2,1,1023.7,3,97.1,1.2,1.1
imgw,bielsko biala,2020-11-27,27-Nov-2020 09:00:00,27-Nov-2020 07:15:00,27-Nov-2020 15:48:00,-0.3,13,1024.4,0,90.2,2.2,3.2
wttr.in,katowice,2020-11-27,27-Nov-2020 10:15:00,27-Nov-2020 07:17:00,27-Nov-2020 15:47:00,2,-1,1023,8,79,1.2,1.1
wttr.in,bielsko biala,2020-11-27,27-Nov-2020 10:49:00,27-Nov-2020 07:15:00,27-Nov-2020 15:48:00,1,-1,1021,13,100,2.2,3.2
imgw,raciborz,2020-11-27,27-Nov-2020 10:00:00,27-Nov-2020 07:19:00,27-Nov-2020 15:50:00,2.2,2,1023.7,3,87.8,0.8,1.1
imgw,katowice,2020-11-27,27-Nov-2020 10:00:00,27-Nov-2020 07:17:00,27-Nov-2020 15:47:00,1.1,1,1023.7,3,95.7,1.2,1.1
imgw,bielsko biala,2020-11-27,27-Nov-2020 10:00:00,27-Nov-2020 07:15:00,27-Nov-2020 15:48:00,0.8,1,1023.9,2,89.0,2.2,3.2
wttr.in,raciborz,2020-11-27,27-Nov-2020 11:21:00,27-Nov-2020 07:19:00,27-Nov-2020 15:50:00,0,-2,1023,28,100,0.8,1.1
imgw,raciborz,2020-11-27,27-Nov-2020 11:00:00,27-Nov-2020 07:19:00,27-Nov-2020 15:50:00,2.8,3,1023.1,3,85.9,0.8,1.1
imgw,katowice,2020-11-27,27-Nov-2020 11:00:00,27-Nov-2020 07:17:00,27-Nov-2020 15:47:00,1.4,2,1023.2,2,97.9,1.2,1.1
imgw,bielsko biala,2020-11-27,27-Nov-2020 11:00:00,27-Nov-2020 07:15:00,27-Nov-2020 15:48:00,1.2,3,1023.6,1,87.7,2.2,3.2
wttr.in,katowice,2020-11-27,27-Nov-2020 12:10:00,27-Nov-2020 07:17:00,27-Nov-2020 15:47:00,2,1,1023,6,80,1.2,1.1
wttr.in,raciborz,2020-11-27,27-Nov-2020 12:31:00,27-Nov-2020 07:19:00,27-Nov-2020 15:50:00,1,-0,1022,26,93,0.8,1.1
wttr.in,bielsko biala,2020-11-27,27-Nov-2020 12:31:00,27-Nov-2020 07:15:00,27-Nov-2020 15:48:00,1,-0,1021,9,100,2.2,3.2
imgw,raciborz,2020-11-28,28-Nov-2020 16:00:00,28-Nov-2020 07:21:00,28-Nov-2020 15:49:00,3.1,2,1022.9,4,86.0,-2.9,-1.2
wttr.in,raciborz,2020-11-28,28-Nov-2020 17:36:00,28-Nov-2020 07:21:00,28-Nov-2020 15:49:00,3,-0,1021,9,81,-2.9,-1.2
imgw,katowice,2020-11-28,28-Nov-2020 16:00:00,28-Nov-2020 07:18:00,28-Nov-2020 15:46:00,2.4,4,1022.4,1,87.2,-2.0,-1.9
wttr.in,katowice,2020-11-28,28-Nov-2020 16:10:00,28-Nov-2020 07:18:00,28-Nov-2020 15:46:00,3,-0,1022,10,82,-2.0,-1.9
imgw,bielsko biala,2020-11-28,28-Nov-2020 16:00:00,28-Nov-2020 07:16:00,28-Nov-2020 15:47:00,1.5,2,1022.7,2,91.7,-0.9,-0.2
wttr.in,bielsko biala,2020-11-28,28-Nov-2020 17:36:00,28-Nov-2020 07:16:00,28-Nov-2020 15:47:00,1,-1,1020,9,93,-0.9,-0.2
wttr.in,katowice,2020-11-28,28-Nov-2020 17:45:00,28-Nov-2020 07:18:00,28-Nov-2020 15:46:00,2,-0,1022,9,82,-2.0,-1.9
imgw,raciborz,2020-11-28,28-Nov-2020 17:00:00,28-Nov-2020 07:21:00,28-Nov-2020 15:49:00,3,1,1023,6,89.1,-2.9,-1.2
imgw,katowice,2020-11-28,28-Nov-2020 17:00:00,28-Nov-2020 07:18:00,28-Nov-2020 15:46:00,2.1,4,1022.6,1,82.8,-2.0,-1.9
imgw,bielsko biala,2020-11-28,28-Nov-2020 17:00:00,28-Nov-2020 07:16:00,28-Nov-2020 15:47:00,1.5,1,1022.8,3,91.7,-0.9,-0.2
wttr.in,raciborz,2020-11-28,28-Nov-2020 18:49:00,28-Nov-2020 07:21:00,28-Nov-2020 15:49:00,3,-0,1021,6,81,-2.9,-1.2
wttr.in,bielsko biala,2020-11-28,28-Nov-2020 19:02:00,28-Nov-2020 07:16:00,28-Nov-2020 15:47:00,-1,-3,1020,7,93,-0.9,-0.2
imgw,raciborz,2020-11-28,28-Nov-2020 18:00:00,28-Nov-2020 07:21:00,28-Nov-2020 15:49:00,2.9,2,1023.2,5,86.6,-2.9,-1.2
imgw,katowice,2020-11-28,28-Nov-2020 18:00:00,28-Nov-2020 07:18:00,28-Nov-2020 15:46:00,1.5,3,1022.8,1,79.1,-2.0,-1.9
imgw,bielsko biala,2020-11-28,28-Nov-2020 18:00:00,28-Nov-2020 07:16:00,28-Nov-2020 15:47:00,1.3,1,1023,3,91.0,-0.9,-0.2
wttr.in,katowice,2020-11-28,28-Nov-2020 19:33:00,28-Nov-2020 07:18:00,28-Nov-2020 15:46:00,2,-1,1022,9,82,-2.0,-1.9
imgw,raciborz,2020-11-28,28-Nov-2020 19:00:00,28-Nov-2020 07:21:00,28-Nov-2020 15:49:00,2.4,2,1023.6,4,84.0,-2.9,-1.2
imgw,katowice,2020-11-28,28-Nov-2020 19:00:00,28-Nov-2020 07:18:00,28-Nov-2020 15:46:00,1.2,3,1023.1,1,82.7,-2.0,-1.9
imgw,bielsko biala,2020-11-28,28-Nov-2020 19:00:00,28-Nov-2020 07:16:00,28-Nov-2020 15:47:00,1,1,1023.3,2,89.0,-0.9,-0.2